<?xml version="1.0" encoding="UTF-8" standalone="no"?>
<!-- Created with Inkscape (http://www.inkscape.org/) -->

<svg
   width="136.36687mm"
   height="45.093475mm"
   viewBox="0 0 136.36687 45.093475"
   version="1.1"
   id="svg5"
   inkscape:version="1.1 (c4e8f9ed74, 2021-05-24)"
   sodipodi:docname="Tinkr-logo.svg"
   xmlns:inkscape="http://www.inkscape.org/namespaces/inkscape"
   xmlns:sodipodi="http://sodipodi.sourceforge.net/DTD/sodipodi-0.dtd"
   xmlns:xlink="http://www.w3.org/1999/xlink"
   xmlns="http://www.w3.org/2000/svg"
   xmlns:svg="http://www.w3.org/2000/svg">
  <sodipodi:namedview
     id="namedview7"
     pagecolor="#ffffff"
     bordercolor="#666666"
     borderopacity="1.0"
     inkscape:pageshadow="2"
     inkscape:pageopacity="0.0"
     inkscape:pagecheckerboard="0"
     inkscape:document-units="mm"
     showgrid="false"
     inkscape:zoom="1.1326109"
     inkscape:cx="210.57541"
     inkscape:cy="157.159"
     inkscape:window-width="1506"
     inkscape:window-height="1049"
     inkscape:window-x="0"
     inkscape:window-y="0"
     inkscape:window-maximized="1"
     inkscape:current-layer="text2211" />
  <defs
     id="defs2">
    <linearGradient
       inkscape:collect="always"
       id="linearGradient11449">
      <stop
         style="stop-color:#804ad4;stop-opacity:1;"
         offset="0"
         id="stop11445" />
      <stop
         style="stop-color:#cd5bd8;stop-opacity:1"
         offset="1"
         id="stop11447" />
    </linearGradient>
    <linearGradient
       id="linearGradient11032"
       inkscape:swatch="solid">
      <stop
         style="stop-color:#804ad4;stop-opacity:1;"
         offset="0"
         id="stop11030" />
    </linearGradient>
    <linearGradient
       inkscape:collect="always"
       xlink:href="#linearGradient11449"
       id="linearGradient11451"
       x1="70.285072"
       y1="113.97523"
       x2="87.929527"
       y2="170.89906"
       gradientUnits="userSpaceOnUse"
       gradientTransform="matrix(0.77277906,0,0,0.77277906,6.4868961,28.825528)" />
  </defs>
  <g
     inkscape:label="Layer 1"
     inkscape:groupmode="layer"
     id="layer1"
     transform="translate(-25.154521,-104.31449)">
    <g
       aria-label="Tinkr"
       id="text2211"
       style="font-size:60.3661px;line-height:1.25;font-family:Amaranth;-inkscape-font-specification:Amaranth;fill:url(#linearGradient11451);stroke-width:1.50915">
      <path
         d="m 55.518669,108.29865 -1.267688,7.3043 H 44.83387 v 33.56355 h -9.960407 v -33.56355 h -9.718942 v -7.3043 z"
         style="font-weight:bold;-inkscape-font-specification:'Amaranth Bold'"
         id="path14" />
      <path
         d="m 66.444932,149.40797 q -3.440867,0 -5.553681,-1.75062 -2.112813,-1.81098 -2.112813,-5.07075 v -23.72388 h 9.537844 v 21.0074 q 0,1.38842 0.422562,1.87135 0.422563,0.48293 1.267688,0.48293 0.482929,0 0.965858,-0.0604 0.482929,-0.12074 0.603661,-0.1811 l 0.845125,5.97624 q -0.06037,0.0604 -0.543295,0.30183 -0.482928,0.1811 -1.267688,0.48293 -0.784759,0.24147 -1.871349,0.42256 -1.08659,0.24147 -2.293912,0.24147 z m -2.77684,-45.09348 q 2.535376,0 3.86343,1.50915 1.328054,1.50916 1.328054,3.80307 0,2.35428 -1.38842,3.92379 -1.328054,1.56952 -4.044529,1.56952 -2.535376,0 -3.923796,-1.50915 -1.328054,-1.56952 -1.328054,-3.68233 0,-2.41465 1.38842,-3.98416 1.38842,-1.62989 4.104895,-1.62989 z"
         style="font-weight:bold;-inkscape-font-specification:'Amaranth Bold'"
         id="path16" />
      <path
         d="m 93.7304,149.1665 v -18.83422 q 0,-2.11281 -0.543295,-3.3805 -0.482929,-1.32806 -1.871349,-1.32806 -1.690251,0 -3.139038,2.23355 -1.448786,2.17318 -1.448786,6.15734 v 15.15189 h -9.537844 v -15.69518 q 0,-3.62197 -0.543295,-5.97625 -0.482928,-2.41464 -1.146956,-3.92379 -0.724393,-1.69025 -1.629884,-2.71648 l 7.666494,-2.41464 q 0.543295,0.60366 1.08659,1.38842 0.482929,0.66403 0.905492,1.75062 0.482929,1.02622 0.784759,2.35427 1.569519,-2.8372 4.285993,-4.16526 2.776841,-1.32805 6.03661,-1.32805 4.708556,0 6.700639,2.89757 1.99208,2.83721 1.99208,7.60613 v 20.22264 z"
         style="font-weight:bold;-inkscape-font-specification:'Amaranth Bold'"
         id="path18" />
      <path
         d="M 119.44631,105.40108 V 121.217 q 1.14695,-1.02622 3.0183,-1.87135 1.87135,-0.90549 4.88966,-0.90549 1.87135,0 3.50123,0.54329 1.62989,0.5433 2.77684,1.62989 1.20732,1.02622 1.87135,2.53537 0.72439,1.44879 0.72439,3.32014 0,2.71647 -1.02622,4.52746 -0.96586,1.75061 -2.17318,2.77684 -1.38842,1.20732 -3.13904,1.93171 l 8.45126,13.46164 H 127.475 q -2.65611,-4.46709 -4.28599,-8.14942 -1.62989,-3.7427 -2.23355,-6.9421 l -0.0604,-0.90549 q 0.42257,-0.0604 1.38842,-0.30183 0.96586,-0.30183 1.93172,-0.84513 1.02622,-0.60366 1.75062,-1.50915 0.78476,-0.90549 0.78476,-2.17318 0,-1.38842 -0.7244,-2.11281 -0.66402,-0.78476 -1.75061,-0.78476 -1.38842,0 -2.35428,0.66402 -0.90549,0.66403 -1.44879,1.50916 -0.54329,0.84512 -0.78476,1.69025 -0.24146,0.78476 -0.24146,1.14695 v 18.71349 h -9.53785 v -42.13553 z"
         style="font-weight:bold;-inkscape-font-specification:'Amaranth Bold'"
         id="path20" />
      <path
         d="m 156.20916,127.55544 q -0.66402,0 -1.44878,0.3622 -0.78476,0.36219 -1.50915,1.14695 -0.7244,0.7244 -1.20733,1.93172 -0.48293,1.14695 -0.48293,2.77684 v 15.39335 h -9.53784 v -15.69518 q 0,-3.62197 -0.54329,-5.97625 -0.48293,-2.41464 -1.14696,-3.92379 -0.72439,-1.69025 -1.62989,-2.71648 l 7.6665,-2.41464 q 0.48293,0.60366 1.02622,1.38842 0.42257,0.66403 0.90549,1.69025 0.48293,1.02622 0.78476,2.35428 1.50916,-2.89757 3.5616,-4.16526 2.11282,-1.26769 4.95002,-1.26769 1.26769,0 2.23355,0.24146 1.02622,0.1811 1.69025,0.42257 l -2.47501,9.11528 q -0.42256,-0.24147 -1.14696,-0.42257 -0.66402,-0.24146 -1.69025,-0.24146 z"
         style="font-weight:bold;-inkscape-font-specification:'Amaranth Bold'"
         id="path22" />
    </g>
  </g>
</svg>
